%YAML 1.1
%TAG !u! tag:unity3d.com,2011:
--- !u!1 &3133889658114990350
GameObject:
  m_ObjectHideFlags: 0
  m_CorrespondingSourceObject: {fileID: 0}
  m_PrefabInstance: {fileID: 0}
  m_PrefabAsset: {fileID: 0}
  serializedVersion: 6
  m_Component:
  - component: {fileID: 6344032395895747152}
  - component: {fileID: 6726069727193688306}
  - component: {fileID: 6618903334889932186}
  m_Layer: 31
  m_Name: Layer1
  m_TagString: Untagged
  m_Icon: {fileID: 0}
  m_NavMeshLayer: 0
  m_StaticEditorFlags: 0
  m_IsActive: 1
--- !u!4 &6344032395895747152
Transform:
  m_ObjectHideFlags: 0
  m_CorrespondingSourceObject: {fileID: 0}
  m_PrefabInstance: {fileID: 0}
  m_PrefabAsset: {fileID: 0}
  m_GameObject: {fileID: 3133889658114990350}
  m_LocalRotation: {x: -0, y: -0, z: -0, w: 1}
  m_LocalPosition: {x: 0, y: 0, z: 0}
  m_LocalScale: {x: 1, y: 1, z: 1}
  m_Children: []
  m_Father: {fileID: 8065275990505515410}
  m_RootOrder: 0
  m_LocalEulerAnglesHint: {x: 0, y: 0, z: 0}
--- !u!1839735485 &6726069727193688306
Tilemap:
  m_ObjectHideFlags: 0
  m_CorrespondingSourceObject: {fileID: 0}
  m_PrefabInstance: {fileID: 0}
  m_PrefabAsset: {fileID: 0}
  m_GameObject: {fileID: 3133889658114990350}
  m_Enabled: 1
  m_Tiles:
  - first: {x: -1, y: -10, z: 0}
    second:
      serializedVersion: 2
      m_TileIndex: 47
      m_TileSpriteIndex: 47
      m_TileMatrixIndex: 0
      m_TileColorIndex: 0
      m_TileObjectToInstantiateIndex: 65535
      m_AllTileFlags: 1073741825
  - first: {x: 0, y: -10, z: 0}
    second:
      serializedVersion: 2
      m_TileIndex: 48
      m_TileSpriteIndex: 48
      m_TileMatrixIndex: 0
      m_TileColorIndex: 0
      m_TileObjectToInstantiateIndex: 65535
      m_AllTileFlags: 1073741825
  - first: {x: 1, y: -10, z: 0}
    second:
      serializedVersion: 2
      m_TileIndex: 49
      m_TileSpriteIndex: 49
      m_TileMatrixIndex: 0
      m_TileColorIndex: 0
      m_TileObjectToInstantiateIndex: 65535
      m_AllTileFlags: 1073741825
  - first: {x: 2, y: -10, z: 0}
    second:
      serializedVersion: 2
      m_TileIndex: 50
      m_TileSpriteIndex: 50
      m_TileMatrixIndex: 0
      m_TileColorIndex: 0
      m_TileObjectToInstantiateIndex: 65535
      m_AllTileFlags: 1073741825
  - first: {x: 3, y: -10, z: 0}
    second:
      serializedVersion: 2
      m_TileIndex: 51
      m_TileSpriteIndex: 51
      m_TileMatrixIndex: 0
      m_TileColorIndex: 0
      m_TileObjectToInstantiateIndex: 65535
      m_AllTileFlags: 1073741825
  - first: {x: 4, y: -10, z: 0}
    second:
      serializedVersion: 2
      m_TileIndex: 52
      m_TileSpriteIndex: 52
      m_TileMatrixIndex: 0
      m_TileColorIndex: 0
      m_TileObjectToInstantiateIndex: 65535
      m_AllTileFlags: 1073741825
  - first: {x: -1, y: -9, z: 0}
    second:
      serializedVersion: 2
      m_TileIndex: 40
      m_TileSpriteIndex: 40
      m_TileMatrixIndex: 0
      m_TileColorIndex: 0
      m_TileObjectToInstantiateIndex: 65535
      m_AllTileFlags: 1073741825
  - first: {x: 0, y: -9, z: 0}
    second:
      serializedVersion: 2
      m_TileIndex: 41
      m_TileSpriteIndex: 41
      m_TileMatrixIndex: 0
      m_TileColorIndex: 0
      m_TileObjectToInstantiateIndex: 65535
      m_AllTileFlags: 1073741825
  - first: {x: 1, y: -9, z: 0}
    second:
      serializedVersion: 2
      m_TileIndex: 42
      m_TileSpriteIndex: 42
      m_TileMatrixIndex: 0
      m_TileColorIndex: 0
      m_TileObjectToInstantiateIndex: 65535
      m_AllTileFlags: 1073741825
  - first: {x: 2, y: -9, z: 0}
    second:
      serializedVersion: 2
      m_TileIndex: 43
      m_TileSpriteIndex: 43
      m_TileMatrixIndex: 0
      m_TileColorIndex: 0
      m_TileObjectToInstantiateIndex: 65535
      m_AllTileFlags: 1073741825
  - first: {x: 3, y: -9, z: 0}
    second:
      serializedVersion: 2
      m_TileIndex: 44
      m_TileSpriteIndex: 44
      m_TileMatrixIndex: 0
      m_TileColorIndex: 0
      m_TileObjectToInstantiateIndex: 65535
      m_AllTileFlags: 1073741825
  - first: {x: 4, y: -9, z: 0}
    second:
      serializedVersion: 2
      m_TileIndex: 45
      m_TileSpriteIndex: 45
      m_TileMatrixIndex: 0
      m_TileColorIndex: 0
      m_TileObjectToInstantiateIndex: 65535
      m_AllTileFlags: 1073741825
  - first: {x: 5, y: -9, z: 0}
    second:
      serializedVersion: 2
      m_TileIndex: 46
      m_TileSpriteIndex: 46
      m_TileMatrixIndex: 0
      m_TileColorIndex: 0
      m_TileObjectToInstantiateIndex: 65535
      m_AllTileFlags: 1073741825
  - first: {x: -1, y: -8, z: 0}
    second:
      serializedVersion: 2
      m_TileIndex: 33
      m_TileSpriteIndex: 33
      m_TileMatrixIndex: 0
      m_TileColorIndex: 0
      m_TileObjectToInstantiateIndex: 65535
      m_AllTileFlags: 1073741825
  - first: {x: 0, y: -8, z: 0}
    second:
      serializedVersion: 2
      m_TileIndex: 34
      m_TileSpriteIndex: 34
      m_TileMatrixIndex: 0
      m_TileColorIndex: 0
      m_TileObjectToInstantiateIndex: 65535
      m_AllTileFlags: 1073741825
  - first: {x: 1, y: -8, z: 0}
    second:
      serializedVersion: 2
      m_TileIndex: 35
      m_TileSpriteIndex: 35
      m_TileMatrixIndex: 0
      m_TileColorIndex: 0
      m_TileObjectToInstantiateIndex: 65535
      m_AllTileFlags: 1073741825
  - first: {x: 2, y: -8, z: 0}
    second:
      serializedVersion: 2
      m_TileIndex: 36
      m_TileSpriteIndex: 36
      m_TileMatrixIndex: 0
      m_TileColorIndex: 0
      m_TileObjectToInstantiateIndex: 65535
      m_AllTileFlags: 1073741825
  - first: {x: 3, y: -8, z: 0}
    second:
      serializedVersion: 2
      m_TileIndex: 37
      m_TileSpriteIndex: 37
      m_TileMatrixIndex: 0
      m_TileColorIndex: 0
      m_TileObjectToInstantiateIndex: 65535
      m_AllTileFlags: 1073741825
  - first: {x: 4, y: -8, z: 0}
    second:
      serializedVersion: 2
      m_TileIndex: 38
      m_TileSpriteIndex: 38
      m_TileMatrixIndex: 0
      m_TileColorIndex: 0
      m_TileObjectToInstantiateIndex: 65535
      m_AllTileFlags: 1073741825
  - first: {x: 5, y: -8, z: 0}
    second:
      serializedVersion: 2
      m_TileIndex: 39
      m_TileSpriteIndex: 39
      m_TileMatrixIndex: 0
      m_TileColorIndex: 0
      m_TileObjectToInstantiateIndex: 65535
      m_AllTileFlags: 1073741825
  - first: {x: -1, y: -7, z: 0}
    second:
      serializedVersion: 2
      m_TileIndex: 30
      m_TileSpriteIndex: 30
      m_TileMatrixIndex: 0
      m_TileColorIndex: 0
      m_TileObjectToInstantiateIndex: 65535
      m_AllTileFlags: 1073741825
  - first: {x: 0, y: -7, z: 0}
    second:
      serializedVersion: 2
      m_TileIndex: 31
      m_TileSpriteIndex: 31
      m_TileMatrixIndex: 0
      m_TileColorIndex: 0
      m_TileObjectToInstantiateIndex: 65535
      m_AllTileFlags: 1073741825
  - first: {x: 4, y: -7, z: 0}
    second:
      serializedVersion: 2
      m_TileIndex: 32
      m_TileSpriteIndex: 32
      m_TileMatrixIndex: 0
      m_TileColorIndex: 0
      m_TileObjectToInstantiateIndex: 65535
      m_AllTileFlags: 1073741825
  - first: {x: -1, y: -6, z: 0}
    second:
      serializedVersion: 2
      m_TileIndex: 23
      m_TileSpriteIndex: 23
      m_TileMatrixIndex: 0
      m_TileColorIndex: 0
      m_TileObjectToInstantiateIndex: 65535
      m_AllTileFlags: 1073741825
  - first: {x: 0, y: -6, z: 0}
    second:
      serializedVersion: 2
      m_TileIndex: 24
      m_TileSpriteIndex: 24
      m_TileMatrixIndex: 0
      m_TileColorIndex: 0
      m_TileObjectToInstantiateIndex: 65535
      m_AllTileFlags: 1073741825
  - first: {x: 1, y: -6, z: 0}
    second:
      serializedVersion: 2
      m_TileIndex: 25
      m_TileSpriteIndex: 25
      m_TileMatrixIndex: 0
      m_TileColorIndex: 0
      m_TileObjectToInstantiateIndex: 65535
      m_AllTileFlags: 1073741825
  - first: {x: 2, y: -6, z: 0}
    second:
      serializedVersion: 2
      m_TileIndex: 26
      m_TileSpriteIndex: 26
      m_TileMatrixIndex: 0
      m_TileColorIndex: 0
      m_TileObjectToInstantiateIndex: 65535
      m_AllTileFlags: 1073741825
  - first: {x: 3, y: -6, z: 0}
    second:
      serializedVersion: 2
      m_TileIndex: 27
      m_TileSpriteIndex: 27
      m_TileMatrixIndex: 0
      m_TileColorIndex: 0
      m_TileObjectToInstantiateIndex: 65535
      m_AllTileFlags: 1073741825
  - first: {x: 4, y: -6, z: 0}
    second:
      serializedVersion: 2
      m_TileIndex: 28
      m_TileSpriteIndex: 28
      m_TileMatrixIndex: 0
      m_TileColorIndex: 0
      m_TileObjectToInstantiateIndex: 65535
      m_AllTileFlags: 1073741825
  - first: {x: 5, y: -6, z: 0}
    second:
      serializedVersion: 2
      m_TileIndex: 29
      m_TileSpriteIndex: 29
      m_TileMatrixIndex: 0
      m_TileColorIndex: 0
      m_TileObjectToInstantiateIndex: 65535
      m_AllTileFlags: 1073741825
  - first: {x: -1, y: -5, z: 0}
    second:
      serializedVersion: 2
      m_TileIndex: 20
      m_TileSpriteIndex: 20
      m_TileMatrixIndex: 0
      m_TileColorIndex: 0
      m_TileObjectToInstantiateIndex: 65535
      m_AllTileFlags: 1073741825
  - first: {x: 0, y: -5, z: 0}
    second:
      serializedVersion: 2
      m_TileIndex: 21
      m_TileSpriteIndex: 21
      m_TileMatrixIndex: 0
      m_TileColorIndex: 0
      m_TileObjectToInstantiateIndex: 65535
      m_AllTileFlags: 1073741825
  - first: {x: 5, y: -5, z: 0}
    second:
      serializedVersion: 2
      m_TileIndex: 22
      m_TileSpriteIndex: 22
      m_TileMatrixIndex: 0
      m_TileColorIndex: 0
      m_TileObjectToInstantiateIndex: 65535
      m_AllTileFlags: 1073741825
  - first: {x: 0, y: -4, z: 0}
    second:
      serializedVersion: 2
      m_TileIndex: 14
      m_TileSpriteIndex: 14
      m_TileMatrixIndex: 0
      m_TileColorIndex: 0
      m_TileObjectToInstantiateIndex: 65535
      m_AllTileFlags: 1073741825
  - first: {x: 1, y: -4, z: 0}
    second:
      serializedVersion: 2
      m_TileIndex: 15
      m_TileSpriteIndex: 15
      m_TileMatrixIndex: 0
      m_TileColorIndex: 0
      m_TileObjectToInstantiateIndex: 65535
      m_AllTileFlags: 1073741825
  - first: {x: 2, y: -4, z: 0}
    second:
      serializedVersion: 2
      m_TileIndex: 16
      m_TileSpriteIndex: 16
      m_TileMatrixIndex: 0
      m_TileColorIndex: 0
      m_TileObjectToInstantiateIndex: 65535
      m_AllTileFlags: 1073741825
  - first: {x: 3, y: -4, z: 0}
    second:
      serializedVersion: 2
      m_TileIndex: 17
      m_TileSpriteIndex: 17
      m_TileMatrixIndex: 0
      m_TileColorIndex: 0
      m_TileObjectToInstantiateIndex: 65535
      m_AllTileFlags: 1073741825
  - first: {x: 4, y: -4, z: 0}
    second:
      serializedVersion: 2
      m_TileIndex: 18
      m_TileSpriteIndex: 18
      m_TileMatrixIndex: 0
      m_TileColorIndex: 0
      m_TileObjectToInstantiateIndex: 65535
      m_AllTileFlags: 1073741825
  - first: {x: 5, y: -4, z: 0}
    second:
      serializedVersion: 2
      m_TileIndex: 19
      m_TileSpriteIndex: 19
      m_TileMatrixIndex: 0
      m_TileColorIndex: 0
      m_TileObjectToInstantiateIndex: 65535
      m_AllTileFlags: 1073741825
  - first: {x: 0, y: -3, z: 0}
    second:
      serializedVersion: 2
      m_TileIndex: 9
      m_TileSpriteIndex: 9
      m_TileMatrixIndex: 0
      m_TileColorIndex: 0
      m_TileObjectToInstantiateIndex: 65535
      m_AllTileFlags: 1073741825
  - first: {x: 1, y: -3, z: 0}
    second:
      serializedVersion: 2
      m_TileIndex: 10
      m_TileSpriteIndex: 10
      m_TileMatrixIndex: 0
      m_TileColorIndex: 0
      m_TileObjectToInstantiateIndex: 65535
      m_AllTileFlags: 1073741825
  - first: {x: 2, y: -3, z: 0}
    second:
      serializedVersion: 2
      m_TileIndex: 11
      m_TileSpriteIndex: 11
      m_TileMatrixIndex: 0
      m_TileColorIndex: 0
      m_TileObjectToInstantiateIndex: 65535
      m_AllTileFlags: 1073741825
  - first: {x: 3, y: -3, z: 0}
    second:
      serializedVersion: 2
      m_TileIndex: 12
      m_TileSpriteIndex: 12
      m_TileMatrixIndex: 0
      m_TileColorIndex: 0
      m_TileObjectToInstantiateIndex: 65535
      m_AllTileFlags: 1073741825
  - first: {x: 4, y: -3, z: 0}
    second:
      serializedVersion: 2
      m_TileIndex: 13
      m_TileSpriteIndex: 13
      m_TileMatrixIndex: 0
      m_TileColorIndex: 0
      m_TileObjectToInstantiateIndex: 65535
      m_AllTileFlags: 1073741825
  - first: {x: 0, y: -2, z: 0}
    second:
      serializedVersion: 2
      m_TileIndex: 4
      m_TileSpriteIndex: 4
      m_TileMatrixIndex: 0
      m_TileColorIndex: 0
      m_TileObjectToInstantiateIndex: 65535
      m_AllTileFlags: 1073741825
  - first: {x: 1, y: -2, z: 0}
    second:
      serializedVersion: 2
      m_TileIndex: 5
      m_TileSpriteIndex: 5
      m_TileMatrixIndex: 0
      m_TileColorIndex: 0
      m_TileObjectToInstantiateIndex: 65535
      m_AllTileFlags: 1073741825
  - first: {x: 2, y: -2, z: 0}
    second:
      serializedVersion: 2
      m_TileIndex: 6
      m_TileSpriteIndex: 6
      m_TileMatrixIndex: 0
      m_TileColorIndex: 0
      m_TileObjectToInstantiateIndex: 65535
      m_AllTileFlags: 1073741825
  - first: {x: 3, y: -2, z: 0}
    second:
      serializedVersion: 2
      m_TileIndex: 7
      m_TileSpriteIndex: 7
      m_TileMatrixIndex: 0
      m_TileColorIndex: 0
      m_TileObjectToInstantiateIndex: 65535
      m_AllTileFlags: 1073741825
  - first: {x: 4, y: -2, z: 0}
    second:
      serializedVersion: 2
      m_TileIndex: 8
      m_TileSpriteIndex: 8
      m_TileMatrixIndex: 0
      m_TileColorIndex: 0
      m_TileObjectToInstantiateIndex: 65535
      m_AllTileFlags: 1073741825
  - first: {x: 1, y: -1, z: 0}
    second:
      serializedVersion: 2
      m_TileIndex: 0
      m_TileSpriteIndex: 0
      m_TileMatrixIndex: 0
      m_TileColorIndex: 0
      m_TileObjectToInstantiateIndex: 65535
      m_AllTileFlags: 1073741825
  - first: {x: 2, y: -1, z: 0}
    second:
      serializedVersion: 2
      m_TileIndex: 1
      m_TileSpriteIndex: 1
      m_TileMatrixIndex: 0
      m_TileColorIndex: 0
      m_TileObjectToInstantiateIndex: 65535
      m_AllTileFlags: 1073741825
  - first: {x: 3, y: -1, z: 0}
    second:
      serializedVersion: 2
      m_TileIndex: 2
      m_TileSpriteIndex: 2
      m_TileMatrixIndex: 0
      m_TileColorIndex: 0
      m_TileObjectToInstantiateIndex: 65535
      m_AllTileFlags: 1073741825
  - first: {x: 4, y: -1, z: 0}
    second:
      serializedVersion: 2
      m_TileIndex: 3
      m_TileSpriteIndex: 3
      m_TileMatrixIndex: 0
      m_TileColorIndex: 0
      m_TileObjectToInstantiateIndex: 65535
      m_AllTileFlags: 1073741825
  m_AnimatedTiles: {}
  m_TileAssetArray:
  - m_RefCount: 1
    m_Data: {fileID: 11400000, guid: b2890497ce78a8e4a837863009816db8, type: 2}
  - m_RefCount: 1
    m_Data: {fileID: 11400000, guid: 97089242d4aca8541bbc0c5a6f8952bc, type: 2}
  - m_RefCount: 1
    m_Data: {fileID: 11400000, guid: aa21cdafd51653d498d901b3790ba0a7, type: 2}
  - m_RefCount: 1
    m_Data: {fileID: 11400000, guid: e8dcbb112ee7caa47849884eef9f4fc5, type: 2}
  - m_RefCount: 1
    m_Data: {fileID: 11400000, guid: 93b2914bb61d2ae4496b5aaf00273cc5, type: 2}
  - m_RefCount: 1
    m_Data: {fileID: 11400000, guid: e5592f6f088098c4abfd785e4b649421, type: 2}
  - m_RefCount: 1
    m_Data: {fileID: 11400000, guid: 00cb94a6f135ae1438a21b97483a114d, type: 2}
  - m_RefCount: 1
    m_Data: {fileID: 11400000, guid: 17e46f87f4e6c2b42924ed720a1fa17e, type: 2}
  - m_RefCount: 1
    m_Data: {fileID: 11400000, guid: 24a0a4d4a819bd64bb657e66ffe466e0, type: 2}
  - m_RefCount: 1
    m_Data: {fileID: 11400000, guid: c875ec05d643b44418c1373e6131c7e2, type: 2}
  - m_RefCount: 1
    m_Data: {fileID: 11400000, guid: a38b30d0d136c604d898495040bf1a56, type: 2}
  - m_RefCount: 1
    m_Data: {fileID: 11400000, guid: 190e70336196c2247a538364213e6d58, type: 2}
  - m_RefCount: 1
    m_Data: {fileID: 11400000, guid: 801ab84431af327449604ee182fb4be8, type: 2}
  - m_RefCount: 1
    m_Data: {fileID: 11400000, guid: 04cebc8401c26a74b8f48f5efdca9f61, type: 2}
  - m_RefCount: 1
    m_Data: {fileID: 11400000, guid: 532445887fc979b45b48111c264069d9, type: 2}
  - m_RefCount: 1
    m_Data: {fileID: 11400000, guid: cb130a3cbd3f650468b2917848cbc863, type: 2}
  - m_RefCount: 1
    m_Data: {fileID: 11400000, guid: af69e364d1e25d94d974de807e11bdf0, type: 2}
  - m_RefCount: 1
    m_Data: {fileID: 11400000, guid: 38693676b395e064d80c3d8c7be7ce0c, type: 2}
  - m_RefCount: 1
    m_Data: {fileID: 11400000, guid: d5e06d1fba9966c4db820860f1b00a02, type: 2}
  - m_RefCount: 1
    m_Data: {fileID: 11400000, guid: 54a52bfd90c7c2e489437de6507fc8ee, type: 2}
  - m_RefCount: 1
    m_Data: {fileID: 11400000, guid: 265d52701f476b542b00923f8deb36bd, type: 2}
  - m_RefCount: 1
    m_Data: {fileID: 11400000, guid: bf98cfeb263479f4c94ce3574fb416be, type: 2}
  - m_RefCount: 1
    m_Data: {fileID: 11400000, guid: 0cb1379c12103314da6667b8d2248b06, type: 2}
  - m_RefCount: 1
    m_Data: {fileID: 11400000, guid: c2934ec5f529873428023152ba44ddd1, type: 2}
  - m_RefCount: 1
    m_Data: {fileID: 11400000, guid: 274f67da99b0b2d459089af3b780b191, type: 2}
  - m_RefCount: 1
    m_Data: {fileID: 11400000, guid: b592157f6490c4444b35db0968b613f4, type: 2}
  - m_RefCount: 1
    m_Data: {fileID: 11400000, guid: 2000c32a2d27041469bcb3f7dbec15af, type: 2}
  - m_RefCount: 1
    m_Data: {fileID: 11400000, guid: 6db86e474c2ad83449244668cd99f080, type: 2}
  - m_RefCount: 1
    m_Data: {fileID: 11400000, guid: e5c5e38b2c0f96240be37a5fb6316b8b, type: 2}
  - m_RefCount: 1
    m_Data: {fileID: 11400000, guid: e6d66d74b4e65cd4284804628b05d035, type: 2}
  - m_RefCount: 1
    m_Data: {fileID: 11400000, guid: cfaf68099be92464a9b1c9af0a7ac8b7, type: 2}
  - m_RefCount: 1
    m_Data: {fileID: 11400000, guid: 29fae03781077574ebf23ce2b23744f4, type: 2}
  - m_RefCount: 1
    m_Data: {fileID: 11400000, guid: 9006e75e7d4fcb142bb1d46ee54480d9, type: 2}
  - m_RefCount: 1
    m_Data: {fileID: 11400000, guid: d432bbdc4ba1e874296e0e82271fd075, type: 2}
  - m_RefCount: 1
    m_Data: {fileID: 11400000, guid: 3e8da0a41a9035d4a9a4994198d91795, type: 2}
  - m_RefCount: 1
    m_Data: {fileID: 11400000, guid: a660b723146a1a04dbbaacb8cd4c1300, type: 2}
  - m_RefCount: 1
    m_Data: {fileID: 11400000, guid: 627ae0e783ce66a42992bef0af24e6d0, type: 2}
  - m_RefCount: 1
    m_Data: {fileID: 11400000, guid: edf56adae9783aa4cbdfb72d93293f5d, type: 2}
  - m_RefCount: 1
    m_Data: {fileID: 11400000, guid: 86d38887c1fa76a488fed65e65e28f18, type: 2}
  - m_RefCount: 1
    m_Data: {fileID: 11400000, guid: 5607511b5c7849c47a6cd4212ffc985f, type: 2}
  - m_RefCount: 1
    m_Data: {fileID: 11400000, guid: 08ad6fcb6382f3848bdc678d4d04188b, type: 2}
  - m_RefCount: 1
    m_Data: {fileID: 11400000, guid: ecfcfa4ff4e5a574fb76f75b2a07770b, type: 2}
  - m_RefCount: 1
    m_Data: {fileID: 11400000, guid: f4281a4ff5af2b04392d79b3ed7a400b, type: 2}
  - m_RefCount: 1
    m_Data: {fileID: 11400000, guid: 3913fb990415c2c48be135a50d23e4d0, type: 2}
  - m_RefCount: 1
    m_Data: {fileID: 11400000, guid: 86dcc7a81a7b0f14b9fa9ca5484f3561, type: 2}
  - m_RefCount: 1
    m_Data: {fileID: 11400000, guid: 02eab6072ccf57741a85f92c670dbdb6, type: 2}
  - m_RefCount: 1
    m_Data: {fileID: 11400000, guid: caa962f1928f9e648bd972c5063a2af4, type: 2}
  - m_RefCount: 1
    m_Data: {fileID: 11400000, guid: f14b0b54ec9f256479577f8b73417590, type: 2}
  - m_RefCount: 1
    m_Data: {fileID: 11400000, guid: 1eac34a25ddaf4a40a3e555441bddb15, type: 2}
  - m_RefCount: 1
    m_Data: {fileID: 11400000, guid: c4dc0e9f2bec08c428b9289cfe709b8e, type: 2}
  - m_RefCount: 1
    m_Data: {fileID: 11400000, guid: 77b93c85fd5c4e54497c6ca993b6b46a, type: 2}
  - m_RefCount: 1
    m_Data: {fileID: 11400000, guid: 339f431ea79664f41a59351e44a82a6e, type: 2}
  - m_RefCount: 1
    m_Data: {fileID: 11400000, guid: 717e0ac88e03df04d9ef6bca1124c87c, type: 2}
  m_TileSpriteArray:
  - m_RefCount: 1
    m_Data: {fileID: -3120760274683040930, guid: 7617c21cba5337046890fe578ebea2c5,
      type: 3}
  - m_RefCount: 1
    m_Data: {fileID: -5668743116548598582, guid: 7617c21cba5337046890fe578ebea2c5,
      type: 3}
  - m_RefCount: 1
    m_Data: {fileID: -8195880329165671014, guid: 7617c21cba5337046890fe578ebea2c5,
      type: 3}
  - m_RefCount: 1
    m_Data: {fileID: 3669275638087183488, guid: 7617c21cba5337046890fe578ebea2c5,
      type: 3}
  - m_RefCount: 1
    m_Data: {fileID: -6377385979560645506, guid: 7617c21cba5337046890fe578ebea2c5,
      type: 3}
  - m_RefCount: 1
    m_Data: {fileID: 5211592515940735705, guid: 7617c21cba5337046890fe578ebea2c5,
      type: 3}
  - m_RefCount: 1
    m_Data: {fileID: -7450857841149799348, guid: 7617c21cba5337046890fe578ebea2c5,
      type: 3}
  - m_RefCount: 1
    m_Data: {fileID: 6921275761933877676, guid: 7617c21cba5337046890fe578ebea2c5,
      type: 3}
  - m_RefCount: 1
    m_Data: {fileID: -5200726931439350999, guid: 7617c21cba5337046890fe578ebea2c5,
      type: 3}
  - m_RefCount: 1
    m_Data: {fileID: -6370009024417123648, guid: 7617c21cba5337046890fe578ebea2c5,
      type: 3}
  - m_RefCount: 1
    m_Data: {fileID: 8718505447459332938, guid: 7617c21cba5337046890fe578ebea2c5,
      type: 3}
  - m_RefCount: 1
    m_Data: {fileID: 5022308848108514315, guid: 7617c21cba5337046890fe578ebea2c5,
      type: 3}
  - m_RefCount: 1
    m_Data: {fileID: 2520424880496393359, guid: 7617c21cba5337046890fe578ebea2c5,
      type: 3}
  - m_RefCount: 1
    m_Data: {fileID: 739154007006829328, guid: 7617c21cba5337046890fe578ebea2c5, type: 3}
  - m_RefCount: 1
    m_Data: {fileID: 5450006601736337830, guid: 7617c21cba5337046890fe578ebea2c5,
      type: 3}
  - m_RefCount: 1
    m_Data: {fileID: 207988271622600541, guid: 7617c21cba5337046890fe578ebea2c5, type: 3}
  - m_RefCount: 1
    m_Data: {fileID: 3365988645580378930, guid: 7617c21cba5337046890fe578ebea2c5,
      type: 3}
  - m_RefCount: 1
    m_Data: {fileID: 4014364911773914137, guid: 7617c21cba5337046890fe578ebea2c5,
      type: 3}
  - m_RefCount: 1
    m_Data: {fileID: 6186462501752174175, guid: 7617c21cba5337046890fe578ebea2c5,
      type: 3}
  - m_RefCount: 1
    m_Data: {fileID: 89299251345961182, guid: 7617c21cba5337046890fe578ebea2c5, type: 3}
  - m_RefCount: 1
    m_Data: {fileID: -8662046191490909860, guid: 7617c21cba5337046890fe578ebea2c5,
      type: 3}
  - m_RefCount: 1
    m_Data: {fileID: 4474271870618278076, guid: 7617c21cba5337046890fe578ebea2c5,
      type: 3}
  - m_RefCount: 1
    m_Data: {fileID: 6277294704597835156, guid: 7617c21cba5337046890fe578ebea2c5,
      type: 3}
  - m_RefCount: 1
    m_Data: {fileID: -9126219294774504525, guid: 7617c21cba5337046890fe578ebea2c5,
      type: 3}
  - m_RefCount: 1
    m_Data: {fileID: 8100438476258839717, guid: 7617c21cba5337046890fe578ebea2c5,
      type: 3}
  - m_RefCount: 1
    m_Data: {fileID: 5281063076378870618, guid: 7617c21cba5337046890fe578ebea2c5,
      type: 3}
  - m_RefCount: 1
    m_Data: {fileID: -3296732682983387701, guid: 7617c21cba5337046890fe578ebea2c5,
      type: 3}
  - m_RefCount: 1
    m_Data: {fileID: 4381568809443802241, guid: 7617c21cba5337046890fe578ebea2c5,
      type: 3}
  - m_RefCount: 1
    m_Data: {fileID: 4289836414372314821, guid: 7617c21cba5337046890fe578ebea2c5,
      type: 3}
  - m_RefCount: 1
    m_Data: {fileID: -8541529589357520811, guid: 7617c21cba5337046890fe578ebea2c5,
      type: 3}
  - m_RefCount: 1
    m_Data: {fileID: 2361397179269713122, guid: 7617c21cba5337046890fe578ebea2c5,
      type: 3}
  - m_RefCount: 1
    m_Data: {fileID: -8360620379065308159, guid: 7617c21cba5337046890fe578ebea2c5,
      type: 3}
  - m_RefCount: 1
    m_Data: {fileID: -6888444241962251707, guid: 7617c21cba5337046890fe578ebea2c5,
      type: 3}
  - m_RefCount: 1
    m_Data: {fileID: -3687591004499805910, guid: 7617c21cba5337046890fe578ebea2c5,
      type: 3}
  - m_RefCount: 1
    m_Data: {fileID: -3540885742622234195, guid: 7617c21cba5337046890fe578ebea2c5,
      type: 3}
  - m_RefCount: 1
    m_Data: {fileID: 2226084212306377713, guid: 7617c21cba5337046890fe578ebea2c5,
      type: 3}
  - m_RefCount: 1
    m_Data: {fileID: -2692768912840069571, guid: 7617c21cba5337046890fe578ebea2c5,
      type: 3}
  - m_RefCount: 1
    m_Data: {fileID: -1653691146443709620, guid: 7617c21cba5337046890fe578ebea2c5,
      type: 3}
  - m_RefCount: 1
    m_Data: {fileID: 4592232357698235273, guid: 7617c21cba5337046890fe578ebea2c5,
      type: 3}
  - m_RefCount: 1
    m_Data: {fileID: -5988745328406460625, guid: 7617c21cba5337046890fe578ebea2c5,
      type: 3}
  - m_RefCount: 1
    m_Data: {fileID: -1015599436320492004, guid: 7617c21cba5337046890fe578ebea2c5,
      type: 3}
  - m_RefCount: 1
    m_Data: {fileID: -7948187435223307624, guid: 7617c21cba5337046890fe578ebea2c5,
      type: 3}
  - m_RefCount: 1
    m_Data: {fileID: 2929857617310610345, guid: 7617c21cba5337046890fe578ebea2c5,
      type: 3}
  - m_RefCount: 1
    m_Data: {fileID: 3273418447970170220, guid: 7617c21cba5337046890fe578ebea2c5,
      type: 3}
  - m_RefCount: 1
    m_Data: {fileID: -4381532318568260714, guid: 7617c21cba5337046890fe578ebea2c5,
      type: 3}
  - m_RefCount: 1
    m_Data: {fileID: -1534372304330744617, guid: 7617c21cba5337046890fe578ebea2c5,
      type: 3}
  - m_RefCount: 1
    m_Data: {fileID: 3148597343064500885, guid: 7617c21cba5337046890fe578ebea2c5,
      type: 3}
  - m_RefCount: 1
    m_Data: {fileID: -993040936369707398, guid: 7617c21cba5337046890fe578ebea2c5,
      type: 3}
  - m_RefCount: 1
    m_Data: {fileID: 2650040920459362209, guid: 7617c21cba5337046890fe578ebea2c5,
      type: 3}
  - m_RefCount: 1
    m_Data: {fileID: 3708129750662999008, guid: 7617c21cba5337046890fe578ebea2c5,
      type: 3}
  - m_RefCount: 1
    m_Data: {fileID: 4061863458867760425, guid: 7617c21cba5337046890fe578ebea2c5,
      type: 3}
  - m_RefCount: 1
    m_Data: {fileID: -2503109153318791687, guid: 7617c21cba5337046890fe578ebea2c5,
      type: 3}
  - m_RefCount: 1
    m_Data: {fileID: -3557770338841446947, guid: 7617c21cba5337046890fe578ebea2c5,
      type: 3}
  m_TileMatrixArray:
  - m_RefCount: 53
    m_Data:
      e00: 1
      e01: 0
      e02: 0
      e03: 0
      e10: 0
      e11: 1
      e12: 0
      e13: 0
      e20: 0
      e21: 0
      e22: 1
      e23: 0
      e30: 0
      e31: 0
      e32: 0
      e33: 1
  m_TileColorArray:
  - m_RefCount: 53
    m_Data: {r: 1, g: 1, b: 1, a: 1}
  m_TileObjectToInstantiateArray: []
  m_AnimationFrameRate: 1
  m_Color: {r: 1, g: 1, b: 1, a: 1}
  m_Origin: {x: -1, y: -10, z: 0}
  m_Size: {x: 7, y: 10, z: 1}
  m_TileAnchor: {x: 0.5, y: 0.5, z: 0}
  m_TileOrientation: 0
  m_TileOrientationMatrix:
    e00: 1
    e01: 0
    e02: 0
    e03: 0
    e10: 0
    e11: 1
    e12: 0
    e13: 0
    e20: 0
    e21: 0
    e22: 1
    e23: 0
    e30: 0
    e31: 0
    e32: 0
    e33: 1
--- !u!483693784 &6618903334889932186
TilemapRenderer:
  m_ObjectHideFlags: 0
  m_CorrespondingSourceObject: {fileID: 0}
  m_PrefabInstance: {fileID: 0}
  m_PrefabAsset: {fileID: 0}
  m_GameObject: {fileID: 3133889658114990350}
  m_Enabled: 0
  m_CastShadows: 0
  m_ReceiveShadows: 0
  m_DynamicOccludee: 0
  m_MotionVectors: 1
  m_LightProbeUsage: 0
  m_ReflectionProbeUsage: 0
  m_RayTracingMode: 0
  m_RenderingLayerMask: 1
  m_RendererPriority: 0
  m_Materials:
  - {fileID: 10754, guid: 0000000000000000f000000000000000, type: 0}
  m_StaticBatchInfo:
    firstSubMesh: 0
    subMeshCount: 0
  m_StaticBatchRoot: {fileID: 0}
  m_ProbeAnchor: {fileID: 0}
  m_LightProbeVolumeOverride: {fileID: 0}
  m_ScaleInLightmap: 1
  m_ReceiveGI: 1
  m_PreserveUVs: 0
  m_IgnoreNormalsForChartDetection: 0
  m_ImportantGI: 0
  m_StitchLightmapSeams: 1
  m_SelectedEditorRenderState: 0
  m_MinimumChartSize: 4
  m_AutoUVMaxDistance: 0.5
  m_AutoUVMaxAngle: 89
  m_LightmapParameters: {fileID: 0}
  m_SortingLayerID: 0
  m_SortingLayer: 0
  m_SortingOrder: 0
  m_ChunkSize: {x: 32, y: 32, z: 32}
  m_ChunkCullingBounds: {x: 0, y: 0, z: 0}
  m_MaxChunkCount: 16
  m_MaxFrameAge: 16
  m_SortOrder: 0
  m_Mode: 0
  m_DetectChunkCullingBounds: 0
  m_MaskInteraction: 0
--- !u!1 &4193734443138317453
GameObject:
  m_ObjectHideFlags: 0
  m_CorrespondingSourceObject: {fileID: 0}
  m_PrefabInstance: {fileID: 0}
  m_PrefabAsset: {fileID: 0}
  serializedVersion: 6
  m_Component:
  - component: {fileID: 8065275990505515410}
  - component: {fileID: 4475285324586359568}
  m_Layer: 31
  m_Name: Sand Tiles 4
  m_TagString: Untagged
  m_Icon: {fileID: 0}
  m_NavMeshLayer: 0
  m_StaticEditorFlags: 0
  m_IsActive: 1
--- !u!4 &8065275990505515410
Transform:
  m_ObjectHideFlags: 0
  m_CorrespondingSourceObject: {fileID: 0}
  m_PrefabInstance: {fileID: 0}
  m_PrefabAsset: {fileID: 0}
  m_GameObject: {fileID: 4193734443138317453}
  m_LocalRotation: {x: 0, y: 0, z: 0, w: 1}
  m_LocalPosition: {x: 0, y: 0, z: 0}
  m_LocalScale: {x: 1, y: 1, z: 1}
  m_Children:
  - {fileID: 6344032395895747152}
  m_Father: {fileID: 0}
  m_RootOrder: 0
  m_LocalEulerAnglesHint: {x: 0, y: 0, z: 0}
--- !u!156049354 &4475285324586359568
Grid:
  m_ObjectHideFlags: 0
  m_CorrespondingSourceObject: {fileID: 0}
  m_PrefabInstance: {fileID: 0}
  m_PrefabAsset: {fileID: 0}
  m_GameObject: {fileID: 4193734443138317453}
  m_Enabled: 1
  m_CellSize: {x: 1, y: 1, z: 0}
  m_CellGap: {x: 0, y: 0, z: 0}
  m_CellLayout: 0
  m_CellSwizzle: 0
--- !u!114 &4020613342724423147
MonoBehaviour:
  m_ObjectHideFlags: 0
  m_CorrespondingSourceObject: {fileID: 0}
  m_PrefabInstance: {fileID: 0}
  m_PrefabAsset: {fileID: 0}
  m_GameObject: {fileID: 0}
  m_Enabled: 1
  m_EditorHideFlags: 0
  m_Script: {fileID: 12395, guid: 0000000000000000e000000000000000, type: 0}
  m_Name: Palette Settings
  m_EditorClassIdentifier: 
  cellSizing: 0
