%YAML 1.1
%TAG !u! tag:unity3d.com,2011:
--- !u!21 &2100000
Material:
  serializedVersion: 6
  m_ObjectHideFlags: 0
  m_CorrespondingSourceObject: {fileID: 0}
  m_PrefabInstance: {fileID: 0}
  m_PrefabAsset: {fileID: 0}
  m_Name: RT Water 0 Waves 0
  m_Shader: {fileID: 4800000, guid: 3495f03d891c0964e83f653eabfdb079, type: 3}
  m_ShaderKeywords: BOTTOM_REFRACTION DISABLE_REFRACTION
  m_LightmapFlags: 5
  m_EnableInstancingVariants: 0
  m_DoubleSidedGI: 0
  m_CustomRenderQueue: -1
  stringTagMap: {}
  disabledShaderPasses: []
  m_SavedProperties:
    serializedVersion: 3
    m_TexEnvs:
    - _BumpMap:
        m_Texture: {fileID: 0}
        m_Scale: {x: 1, y: 1}
        m_Offset: {x: 0, y: 0}
    - _DetailAlbedoMap:
        m_Texture: {fileID: 0}
        m_Scale: {x: 1, y: 1}
        m_Offset: {x: 0, y: 0}
    - _DetailMask:
        m_Texture: {fileID: 0}
        m_Scale: {x: 1, y: 1}
        m_Offset: {x: 0, y: 0}
    - _DetailNormalMap:
        m_Texture: {fileID: 0}
        m_Scale: {x: 1, y: 1}
        m_Offset: {x: 0, y: 0}
    - _EmissionMap:
        m_Texture: {fileID: 0}
        m_Scale: {x: 1, y: 1}
        m_Offset: {x: 0, y: 0}
    - _GrabTex:
        m_Texture: {fileID: 8400000, guid: a6282b9696abcc14098fa47df0a1efe3, type: 2}
        m_Scale: {x: 6.897639, y: 5.3543315}
        m_Offset: {x: -3.900263, y: -5.0643053}
    - _MainTex:
        m_Texture: {fileID: 2800000, guid: 9536b39dc1dec5146acef5f8812c5cac, type: 3}
        m_Scale: {x: 32.64, y: 2.5764706}
        m_Offset: {x: 0, y: 0}
    - _MetallicGlossMap:
        m_Texture: {fileID: 0}
        m_Scale: {x: 1, y: 1}
        m_Offset: {x: 0, y: 0}
    - _OcclusionMap:
        m_Texture: {fileID: 0}
        m_Scale: {x: 1, y: 1}
        m_Offset: {x: 0, y: 0}
    - _ParallaxMap:
        m_Texture: {fileID: 0}
        m_Scale: {x: 1, y: 1}
        m_Offset: {x: 0, y: 0}
    - _Refraction:
        m_Texture: {fileID: 2800000, guid: f5a22d8f3273fda449b39576de376996, type: 3}
        m_Scale: {x: 21.024, y: 8.16}
        m_Offset: {x: 0, y: 0}
    - _TopTex:
        m_Texture: {fileID: 2800000, guid: 6a5f21d84172d564789dc1f74a1a1003, type: 3}
        m_Scale: {x: 1, y: 1}
        m_Offset: {x: 0, y: 0}
    m_Floats:
    - _BumpScale: 1
    - _Current: -0.0014269407
    - _Cutoff: 0.5
    - _DetailNormalMapScale: 1
    - _DstBlend: 0
    - _Glossiness: 0.5
    - _Intensity: 0.025
    - _Level: 0.651
    - _Metallic: 0
    - _Mode: 0
    - _OcclusionStrength: 1
    - _Parallax: 0.02
    - _RefractionIntensity: 0.1
    - _SrcBlend: 1
    - _Transparency: 0.5
    - _Trim: 0.9
    - _UVSec: 0
    - _ZWrite: 1
    m_Colors:
    - _Color: {r: 1, g: 1, b: 1, a: 0.3}
    - _EmissionColor: {r: 0, g: 0, b: 0, a: 1}
    - _Wave: {r: 105.12, g: 0.004901961, b: 0.5, a: 0.7}
